[api-updater (non-obsolete-error-filter)] 25/4/2022 17:59:28 : Starting /home/41014647n/Unity/Hub/Editor/2020.3.30f1/Editor/Data/Tools/ScriptUpdater/APIUpdater.NonObsoleteApiUpdaterDetector.exe
[api-updater (non-obsolete-error-filter)] 
----------------------------------
jit/startup time      : 85,607ms
moved types parse time: 46ms
candidates parse time : 1ms
C# parse time         : 212ms
candidates check time : 29ms
console write time    : 0ms

